<?xml version="1.0" encoding="UTF-8" standalone="no"?>
<svg
   xmlns:dc="http://purl.org/dc/elements/1.1/"
   xmlns:cc="http://creativecommons.org/ns#"
   xmlns:rdf="http://www.w3.org/1999/02/22-rdf-syntax-ns#"
   xmlns:svg="http://www.w3.org/2000/svg"
   xmlns="http://www.w3.org/2000/svg"
   xmlns:sodipodi="http://sodipodi.sourceforge.net/DTD/sodipodi-0.dtd"
   xmlns:inkscape="http://www.inkscape.org/namespaces/inkscape"
   width="1274.093"
   height="116.786"
   viewBox="0 0 1274.093 116.786"
   id="svg3469"
   version="1.1"
   inkscape:version="0.91 r13725"
   sodipodi:docname="logo3.svg">
  <metadata
     id="metadata3499">
    <rdf:RDF>
      <cc:Work
         rdf:about="">
        <dc:format>image/svg+xml</dc:format>
        <dc:type
           rdf:resource="http://purl.org/dc/dcmitype/StillImage" />
        <dc:title></dc:title>
      </cc:Work>
    </rdf:RDF>
  </metadata>
  <defs
     id="defs3497" />
  <sodipodi:namedview
     pagecolor="#ffffff"
     bordercolor="#666666"
     borderopacity="1"
     objecttolerance="10"
     gridtolerance="10"
     guidetolerance="10"
     inkscape:pageopacity="0"
     inkscape:pageshadow="2"
     inkscape:window-width="1920"
     inkscape:window-height="988"
     id="namedview3495"
     showgrid="false"
     inkscape:zoom="0.66833697"
     inkscape:cx="541.2281"
     inkscape:cy="-125.66003"
     inkscape:window-x="0"
     inkscape:window-y="27"
     inkscape:window-maximized="1"
     inkscape:current-layer="svg3469" />
  <text
     transform="scale(0.99658629,1.0034254)"
     sodipodi:linespacing="125%"
     id="text3520"
     y="116.45706"
     x="114.54972"
     style="font-style:normal;font-weight:normal;font-size:161.92204285px;line-height:125%;font-family:sans-serif;letter-spacing:0px;word-spacing:0px;fill:#000000;fill-opacity:1;stroke:none;stroke-width:1px;stroke-linecap:butt;stroke-linejoin:miter;stroke-opacity:1"
     xml:space="preserve"><tspan
       y="116.45706"
       x="114.54972"
       id="tspan3522"
       sodipodi:role="line">L</tspan></text>
  <text
     xml:space="preserve"
     style="font-style:normal;font-weight:normal;font-size:161.92204285px;line-height:125%;font-family:sans-serif;letter-spacing:0px;word-spacing:0px;fill:#000000;fill-opacity:1;stroke:none;stroke-width:1px;stroke-linecap:butt;stroke-linejoin:miter;stroke-opacity:1"
     x="202.06444"
     y="116.45706"
     id="text3524"
     sodipodi:linespacing="125%"
     transform="scale(0.99658629,1.0034254)"><tspan
       sodipodi:role="line"
       id="tspan3526"
       x="202.06444"
       y="116.45706">A</tspan></text>
  <text
     transform="scale(0.98468974,1.0155483)"
     sodipodi:linespacing="125%"
     id="text3528"
     y="117.90209"
     x="279.28134"
     style="font-style:normal;font-weight:normal;font-size:163.8782959px;line-height:125%;font-family:sans-serif;letter-spacing:0px;word-spacing:0px;fill:#000000;fill-opacity:1;stroke:none;stroke-width:1px;stroke-linecap:butt;stroke-linejoin:miter;stroke-opacity:1"
     xml:space="preserve"><tspan
       y="117.90209"
       x="279.28134"
       id="tspan3530"
       sodipodi:role="line">T</tspan></text>
  <text
     xml:space="preserve"
     style="font-style:normal;font-weight:normal;font-size:163.8782959px;line-height:125%;font-family:sans-serif;letter-spacing:0px;word-spacing:0px;fill:#000000;fill-opacity:1;stroke:none;stroke-width:1px;stroke-linecap:butt;stroke-linejoin:miter;stroke-opacity:1"
     x="343.15274"
     y="117.90209"
     id="text3532"
     sodipodi:linespacing="125%"
     transform="scale(0.98468974,1.0155483)"><tspan
       sodipodi:role="line"
       id="tspan3534"
       x="343.15274"
       y="117.90209">A</tspan></text>
  <text
     transform="scale(0.98468974,1.0155483)"
     sodipodi:linespacing="125%"
     id="text3536"
     y="117.90209"
     x="440.49496"
     style="font-style:normal;font-weight:normal;font-size:163.8782959px;line-height:125%;font-family:sans-serif;letter-spacing:0px;word-spacing:0px;fill:#000000;fill-opacity:1;stroke:none;stroke-width:1px;stroke-linecap:butt;stroke-linejoin:miter;stroke-opacity:1"
     xml:space="preserve"><tspan
       y="117.90209"
       x="440.49496"
       id="tspan3538"
       sodipodi:role="line">F</tspan></text>
  <text
     xml:space="preserve"
     style="font-style:normal;font-weight:normal;font-size:163.8782959px;line-height:125%;font-family:sans-serif;letter-spacing:0px;word-spacing:0px;fill:#000000;fill-opacity:1;stroke:none;stroke-width:1px;stroke-linecap:butt;stroke-linejoin:miter;stroke-opacity:1"
     x="516.55353"
     y="120.0626"
     id="text3540"
     sodipodi:linespacing="125%"
     transform="scale(0.98468974,1.0155483)"><tspan
       sodipodi:role="line"
       id="tspan3542"
       x="516.55353"
       y="120.0626">O</tspan></text>
  <text
     transform="scale(0.98468974,1.0155483)"
     sodipodi:linespacing="125%"
     id="text3544"
     y="117.90209"
     x="625.55811"
     style="font-style:normal;font-weight:normal;font-size:163.8782959px;line-height:125%;font-family:sans-serif;letter-spacing:0px;word-spacing:0px;fill:#000000;fill-opacity:1;stroke:none;stroke-width:1px;stroke-linecap:butt;stroke-linejoin:miter;stroke-opacity:1"
     xml:space="preserve"><tspan
       y="117.90209"
       x="625.55811"
       id="tspan3546"
       sodipodi:role="line">R</tspan></text>
  <text
     xml:space="preserve"
     style="font-style:normal;font-weight:normal;font-size:163.8782959px;line-height:125%;font-family:sans-serif;letter-spacing:0px;word-spacing:0px;fill:#000000;fill-opacity:1;stroke:none;stroke-width:1px;stroke-linecap:butt;stroke-linejoin:miter;stroke-opacity:1"
     x="722.46979"
     y="117.90209"
     id="text3548"
     sodipodi:linespacing="125%"
     transform="scale(0.98468974,1.0155483)"><tspan
       sodipodi:role="line"
       id="tspan3550"
       x="722.46979"
       y="117.90209">M</tspan></text>
  <text
     transform="scale(0.98468974,1.0155483)"
     sodipodi:linespacing="125%"
     id="text3552"
     y="117.90209"
     x="850.61517"
     style="font-style:normal;font-weight:normal;font-size:163.8782959px;line-height:125%;font-family:sans-serif;letter-spacing:0px;word-spacing:0px;fill:#000000;fill-opacity:1;stroke:none;stroke-width:1px;stroke-linecap:butt;stroke-linejoin:miter;stroke-opacity:1"
     xml:space="preserve"><tspan
       y="117.90209"
       x="850.61517"
       id="tspan3554"
       sodipodi:role="line">A</tspan></text>
  <text
     xml:space="preserve"
     style="font-style:normal;font-weight:normal;font-size:163.8782959px;line-height:125%;font-family:sans-serif;letter-spacing:0px;word-spacing:0px;fill:#000000;fill-opacity:1;stroke:none;stroke-width:1px;stroke-linecap:butt;stroke-linejoin:miter;stroke-opacity:1"
     x="1094.9067"
     y="117.90209"
     id="text3556"
     sodipodi:linespacing="125%"
     transform="scale(0.98468974,1.0155483)"><tspan
       sodipodi:role="line"
       id="tspan3558"
       x="1094.9067"
       y="117.90209">P</tspan></text>
  <text
     transform="scale(0.98468974,1.0155483)"
     sodipodi:linespacing="125%"
     id="text3560"
     y="117.90209"
     x="1012.437"
     style="font-style:normal;font-weight:normal;font-size:163.8782959px;line-height:125%;font-family:sans-serif;letter-spacing:0px;word-spacing:0px;fill:#000000;fill-opacity:1;stroke:none;stroke-width:1px;stroke-linecap:butt;stroke-linejoin:miter;stroke-opacity:1"
     xml:space="preserve"><tspan
       y="117.90209"
       x="1012.437"
       id="tspan3562"
       sodipodi:role="line">E</tspan></text>
  <text
     transform="scale(0.98468974,1.0155483)"
     sodipodi:linespacing="125%"
     id="text3564"
     y="117.90209"
     x="1175.6726"
     style="font-style:normal;font-weight:normal;font-size:163.8782959px;line-height:125%;font-family:sans-serif;letter-spacing:0px;word-spacing:0px;fill:#000000;fill-opacity:1;stroke:none;stroke-width:1px;stroke-linecap:butt;stroke-linejoin:miter;stroke-opacity:1"
     xml:space="preserve"><tspan
       y="117.90209"
       x="1175.6726"
       id="tspan3566"
       sodipodi:role="line">U</tspan></text>
  <path
     style="clip-rule:evenodd;fill:#2bace2;fill-rule:evenodd"
     inkscape:connector-curvature="0"
     d="M 65.362,0.03499457 98.042,58.410995 130.724,116.78699 0,116.78699 32.68,58.409995"
     id="path3471" />
  <path
     style="font-style:normal;font-weight:normal;font-size:161.92204285px;line-height:125%;font-family:sans-serif;letter-spacing:0px;word-spacing:0px;fill:#008080;fill-opacity:1;stroke:none;stroke-width:1px;stroke-linecap:butt;stroke-linejoin:miter;stroke-opacity:1"
     d="M 43.931641 -1.5898438 L 43.931641 116.85547 L 59.847656 116.85547 L 59.847656 69.255859 L 79.861328 69.255859 C 93.046123 69.255859 103.00089 66.267535 109.72461 60.291016 C 116.50086 54.314497 119.88867 45.481559 119.88867 33.792969 C 119.88867 22.210158 116.50086 13.429644 109.72461 7.453125 C 103.00089 1.4237166 93.046123 -1.5898438 79.861328 -1.5898438 L 43.931641 -1.5898438 z M 59.847656 54.808594 A 33.981647 27.353317 0 0 0 62.279297 56.085938 L 59.847656 56.085938 L 59.847656 54.808594 z "
     id="text3516" />
  <ellipse
     style="fill:#008080"
     id="path4370"
     cx="106.17442"
     cy="60.70969"
     rx="7.3732233"
     ry="0.71982419" />
</svg>
