<?xml version="1.0" encoding="UTF-8" standalone="no"?>
<!-- Created with Inkscape (http://www.inkscape.org/) -->

<svg
   xmlns:dc="http://purl.org/dc/elements/1.1/"
   xmlns:cc="http://creativecommons.org/ns#"
   xmlns:rdf="http://www.w3.org/1999/02/22-rdf-syntax-ns#"
   xmlns:svg="http://www.w3.org/2000/svg"
   xmlns="http://www.w3.org/2000/svg"
   xmlns:sodipodi="http://sodipodi.sourceforge.net/DTD/sodipodi-0.dtd"
   xmlns:inkscape="http://www.inkscape.org/namespaces/inkscape"
   width="150"
   height="50"
   viewBox="0 0 150 50"
   id="svg4734"
   version="1.1"
   inkscape:version="0.91 r13725"
   sodipodi:docname="mini_logo.svg">
  <defs
     id="defs4736">
    <clipPath
       clipPathUnits="userSpaceOnUse"
       id="clipPath244">
      <path
         d="m 300.021,319.109 33.965,0 0,-33.968 -33.965,0 0,33.968 z"
         id="path246"
         inkscape:connector-curvature="0" />
    </clipPath>
    <clipPath
       clipPathUnits="userSpaceOnUse"
       id="clipPath248">
      <path
         d="m 300.021,319.109 33.965,0 0,-33.968 -33.965,0 0,33.968 z"
         id="path250"
         inkscape:connector-curvature="0" />
    </clipPath>
    <clipPath
       clipPathUnits="userSpaceOnUse"
       id="clipPath272">
      <path
         d="m 333.73,297.795 54.264,0 0,-51.729 -54.264,0 0,51.729 z"
         id="path274"
         inkscape:connector-curvature="0" />
    </clipPath>
    <clipPath
       clipPathUnits="userSpaceOnUse"
       id="clipPath276">
      <path
         d="m 333.73,297.795 54.264,0 0,-51.729 -54.264,0 0,51.729 z"
         id="path278"
         inkscape:connector-curvature="0" />
    </clipPath>
    <clipPath
       clipPathUnits="userSpaceOnUse"
       id="clipPath300">
      <path
         d="m 375.832,249.177 33.968,0 0,-33.967 -33.968,0 0,33.967 z"
         id="path302"
         inkscape:connector-curvature="0" />
    </clipPath>
    <clipPath
       clipPathUnits="userSpaceOnUse"
       id="clipPath304">
      <path
         d="m 375.832,249.177 33.968,0 0,-33.967 -33.968,0 0,33.967 z"
         id="path306"
         inkscape:connector-curvature="0" />
    </clipPath>
    <clipPath
       clipPathUnits="userSpaceOnUse"
       id="clipPath328">
      <path
         d="m 397.923,300.702 51.556,0 0,-52.832 -51.556,0 0,52.832 z"
         id="path330"
         inkscape:connector-curvature="0" />
    </clipPath>
    <clipPath
       clipPathUnits="userSpaceOnUse"
       id="clipPath332">
      <path
         d="m 397.923,300.702 51.556,0 0,-52.832 -51.556,0 0,52.832 z"
         id="path334"
         inkscape:connector-curvature="0" />
    </clipPath>
    <clipPath
       clipPathUnits="userSpaceOnUse"
       id="clipPath356">
      <path
         d="m 447.419,325.165 33.967,0 0,-33.968 -33.967,0 0,33.968 z"
         id="path358"
         inkscape:connector-curvature="0" />
    </clipPath>
    <clipPath
       clipPathUnits="userSpaceOnUse"
       id="clipPath360">
      <path
         d="m 447.419,325.165 33.967,0 0,-33.968 -33.967,0 0,33.968 z"
         id="path362"
         inkscape:connector-curvature="0" />
    </clipPath>
    <clipPath
       clipPathUnits="userSpaceOnUse"
       id="clipPath384">
      <path
         d="m 394.947,363.62 52.727,0 0,-50.268 -52.727,0 0,50.268 z"
         id="path386"
         inkscape:connector-curvature="0" />
    </clipPath>
    <clipPath
       clipPathUnits="userSpaceOnUse"
       id="clipPath388">
      <path
         d="m 394.947,363.62 52.727,0 0,-50.268 -52.727,0 0,50.268 z"
         id="path390"
         inkscape:connector-curvature="0" />
    </clipPath>
    <clipPath
       clipPathUnits="userSpaceOnUse"
       id="clipPath412">
      <path
         d="m 371.758,393.569 33.966,0 0,-33.967 -33.966,0 0,33.967 z"
         id="path414"
         inkscape:connector-curvature="0" />
    </clipPath>
    <clipPath
       clipPathUnits="userSpaceOnUse"
       id="clipPath416">
      <path
         d="m 371.758,393.569 33.966,0 0,-33.967 -33.966,0 0,33.967 z"
         id="path418"
         inkscape:connector-curvature="0" />
    </clipPath>
    <clipPath
       clipPathUnits="userSpaceOnUse"
       id="clipPath440">
      <path
         d="m 331.927,361.814 50.476,0 0,-54.196 -50.476,0 0,54.196 z"
         id="path442"
         inkscape:connector-curvature="0" />
    </clipPath>
    <clipPath
       clipPathUnits="userSpaceOnUse"
       id="clipPath444">
      <path
         d="m 331.927,361.814 50.476,0 0,-54.196 -50.476,0 0,54.196 z"
         id="path446"
         inkscape:connector-curvature="0" />
    </clipPath>
  </defs>
  <sodipodi:namedview
     id="base"
     pagecolor="#ffffff"
     bordercolor="#666666"
     borderopacity="1.0"
     inkscape:pageopacity="0.0"
     inkscape:pageshadow="2"
     inkscape:zoom="2.23125"
     inkscape:cx="-41.670652"
     inkscape:cy="16.529795"
     inkscape:document-units="px"
     inkscape:current-layer="layer1"
     showgrid="false"
     inkscape:window-width="1920"
     inkscape:window-height="994"
     inkscape:window-x="0"
     inkscape:window-y="27"
     inkscape:window-maximized="1"
     units="px"
     showborder="true" />
  <metadata
     id="metadata4739">
    <rdf:RDF>
      <cc:Work
         rdf:about="">
        <dc:format>image/svg+xml</dc:format>
        <dc:type
           rdf:resource="http://purl.org/dc/dcmitype/StillImage" />
        <dc:title />
      </cc:Work>
    </rdf:RDF>
  </metadata>
  <g
     inkscape:label="Capa 1"
     inkscape:groupmode="layer"
     id="layer1"
     transform="translate(0,-1002.3622)">
    <g
       id="g4618"
       transform="matrix(0.07769311,0,0,-0.07769311,136.50869,1051.8838)">
      <path
         d="m -1224.8745,327.02317 c 0,-127.61941 -107.4861,-231.077826 -240.077,-231.077826 -132.5909,0 -240.0792,103.458416 -240.0792,231.077826 0,127.61525 107.4883,231.0695 240.0792,231.0695 132.5909,0 240.077,-103.45425 240.077,-231.0695"
         style="fill:#3b6d89;fill-opacity:1;fill-rule:nonzero;stroke:none"
         id="path230"
         inkscape:connector-curvature="0" />
      <g
         id="g4552">
        <g
           id="g252"
           transform="matrix(2.1651382,0,0,2.0839225,-2312.4442,-307.30533)">
          <g
             id="g254"
             clip-path="url(#clipPath244)">
            <g
               id="g256">
              <g
                 id="g258" />
              <g
                 id="g260">
                <g
                   id="g262"
                   clip-path="url(#clipPath248)">
                  <g
                     id="g264"
                     transform="translate(329.0122,290.1182)">
                    <path
                       inkscape:connector-curvature="0"
                       id="path266"
                       style="fill:#f7931d;fill-opacity:1;fill-rule:nonzero;stroke:none"
                       d="m 0,0 c -3.207,-3.209 -7.473,-4.978 -12.009,-4.978 -4.536,0 -8.802,1.769 -12.009,4.978 -3.208,3.207 -4.975,7.473 -4.974,12.007 -10e-4,4.538 1.766,8.804 4.974,12.009 3.207,3.209 7.473,4.975 12.009,4.975 4.536,0 8.802,-1.766 12.009,-4.975 C 3.208,20.811 4.975,16.545 4.974,12.007 4.974,7.473 3.208,3.207 0,0" />
                  </g>
                </g>
              </g>
            </g>
          </g>
        </g>
        <g
           id="g280"
           transform="matrix(2.1651382,0,0,2.0839225,-2312.4442,-307.30533)">
          <g
             id="g282"
             clip-path="url(#clipPath272)">
            <g
               id="g284">
              <g
                 id="g286" />
              <g
                 id="g288">
                <g
                   id="g290"
                   clip-path="url(#clipPath276)">
                  <g
                     id="g292"
                     transform="translate(359.7852,264.2021)">
                    <path
                       inkscape:connector-curvature="0"
                       id="path294"
                       style="fill:#28aae1;fill-opacity:1;fill-rule:nonzero;stroke:none"
                       d="m 0,0 c 8.353,-6.395 18.208,-9.894 28.209,-10.501 l -7.245,-3.871 c -2.995,-1.599 -6.211,-2.705 -9.559,-3.287 -0.8,-0.141 -1.605,-0.25 -2.414,-0.329 -2.516,-0.242 -5.053,-0.187 -7.563,0.166 -3.361,0.476 -6.605,1.469 -9.637,2.965 -3.138,1.544 -5.996,3.591 -8.486,6.082 -2.492,2.489 -4.538,5.348 -6.083,8.488 -1.496,3.034 -2.489,6.277 -2.965,9.639 -0.25,1.773 -0.351,3.562 -0.299,5.339 l -0.003,0.002 c 0.044,1.547 0.2,3.1 0.463,4.634 0.584,3.347 1.691,6.564 3.288,9.559 l 2.519,4.707 c 1.437,-9.875 5.738,-19.416 12.906,-27.286 L -6.866,6.306 C -6.321,5.709 -5.762,5.119 -5.183,4.539 -3.533,2.89 -1.802,1.38 -0.002,0.001 L 0,0 Z" />
                  </g>
                </g>
              </g>
            </g>
          </g>
        </g>
        <g
           id="g308"
           transform="matrix(2.1651382,0,0,2.0839225,-2312.4442,-307.30533)">
          <g
             id="g310"
             clip-path="url(#clipPath300)">
            <g
               id="g312">
              <g
                 id="g314" />
              <g
                 id="g316">
                <g
                   id="g318"
                   clip-path="url(#clipPath304)">
                  <g
                     id="g320"
                     transform="translate(404.8262,220.1826)">
                    <path
                       inkscape:connector-curvature="0"
                       id="path322"
                       style="fill:#f04d4d;fill-opacity:1;fill-rule:nonzero;stroke:none"
                       d="m 0,0 c -3.208,-3.205 -7.474,-4.973 -12.01,-4.973 -4.536,0 -8.802,1.768 -12.009,4.973 -3.208,3.21 -4.974,7.473 -4.975,12.01 0,4.538 1.767,8.804 4.975,12.009 3.207,3.21 7.473,4.975 12.009,4.975 4.536,0 8.802,-1.765 12.01,-4.975 C 3.206,20.811 4.974,16.548 4.974,12.01 4.974,7.473 3.206,3.21 0,0" />
                  </g>
                </g>
              </g>
            </g>
          </g>
        </g>
        <g
           id="g336"
           transform="matrix(2.1651382,0,0,2.0839225,-2312.4442,-307.30533)">
          <g
             id="g338"
             clip-path="url(#clipPath328)">
            <g
               id="g340">
              <g
                 id="g342" />
              <g
                 id="g344">
                <g
                   id="g346"
                   clip-path="url(#clipPath332)">
                  <g
                     id="g348"
                     transform="translate(432.4756,274.2676)">
                    <path
                       inkscape:connector-curvature="0"
                       id="path350"
                       style="fill:#d7df23;fill-opacity:1;fill-rule:nonzero;stroke:none"
                       d="m 0,0 c 5.927,7.879 9.304,17.063 10.132,26.435 l 3.11,-5.816 c 1.597,-2.988 2.703,-6.206 3.286,-9.558 0.14,-0.801 0.25,-1.601 0.326,-2.406 0.243,-2.515 0.19,-5.055 -0.166,-7.568 -0.474,-3.362 -1.469,-6.603 -2.961,-9.639 -1.545,-3.14 -3.595,-5.992 -6.084,-8.484 -2.493,-2.492 -5.347,-4.543 -8.485,-6.084 -3.037,-1.495 -6.279,-2.489 -9.638,-2.962 -1.778,-0.252 -3.567,-0.353 -5.346,-0.303 -1.547,0.044 -3.098,0.196 -4.63,0.459 -3.352,0.587 -6.567,1.693 -9.561,3.287 l -4.536,2.426 c 9.639,1.267 18.977,5.25 26.793,11.949 1.011,0.866 2.001,1.778 2.96,2.738 1.754,1.752 3.35,3.598 4.8,5.526" />
                  </g>
                </g>
              </g>
            </g>
          </g>
        </g>
        <g
           id="g364"
           transform="matrix(2.1651382,0,0,2.0839225,-2312.4442,-307.30533)">
          <g
             id="g366"
             clip-path="url(#clipPath356)">
            <g
               id="g368">
              <g
                 id="g370" />
              <g
                 id="g372">
                <g
                   id="g374"
                   clip-path="url(#clipPath360)">
                  <g
                     id="g376"
                     transform="translate(476.4131,296.1719)">
                    <path
                       inkscape:connector-curvature="0"
                       id="path378"
                       style="fill:#efbf77;fill-opacity:1;fill-rule:nonzero;stroke:none"
                       d="m 0,0 c -3.209,-3.209 -7.473,-4.975 -12.01,-4.975 -4.537,0 -8.801,1.766 -12.009,4.975 -3.207,3.21 -4.972,7.472 -4.975,12.009 0,4.538 1.768,8.801 4.975,12.011 3.208,3.205 7.472,4.973 12.009,4.973 4.537,0 8.801,-1.768 12.01,-4.973 C 3.207,20.81 4.973,16.543 4.973,12.009 4.973,7.472 3.207,3.21 0,0" />
                  </g>
                </g>
              </g>
            </g>
          </g>
        </g>
        <g
           id="g392"
           transform="matrix(2.1651382,0,0,2.0839225,-2312.4442,-307.30533)">
          <g
             id="g394"
             clip-path="url(#clipPath384)">
            <g
               id="g396">
              <g
                 id="g398" />
              <g
                 id="g400">
                <g
                   id="g402"
                   clip-path="url(#clipPath388)">
                  <g
                     id="g404"
                     transform="translate(438.3154,354.2563)">
                    <path
                       inkscape:connector-curvature="0"
                       id="path406"
                       style="fill:#28aae1;fill-opacity:1;fill-rule:nonzero;stroke:none"
                       d="m 0,0 c 2.489,-2.49 4.539,-5.345 6.084,-8.482 1.491,-3.037 2.488,-6.277 2.966,-9.638 0.249,-1.775 0.348,-3.562 0.295,-5.345 -0.038,-1.55 -0.193,-3.103 -0.46,-4.632 -0.581,-3.352 -1.69,-6.568 -3.285,-9.558 l -1.737,-3.249 c -1.42,9.031 -5.242,17.757 -11.466,25.152 -0.956,1.137 -1.967,2.24 -3.037,3.309 -2.09,2.091 -4.313,3.964 -6.642,5.618 -7.844,5.576 -16.894,8.7 -26.086,9.378 l 5.71,3.051 c 2.991,1.592 6.208,2.7 9.557,3.287 0.805,0.133 1.61,0.244 2.418,0.323 2.516,0.243 5.049,0.193 7.562,-0.166 3.359,-0.472 6.6,-1.468 9.635,-2.962 C -5.347,4.542 -2.492,2.493 0,0" />
                  </g>
                </g>
              </g>
            </g>
          </g>
        </g>
        <g
           id="g420"
           transform="matrix(2.1651382,0,0,2.0839225,-2312.4442,-307.30533)">
          <g
             id="g422"
             clip-path="url(#clipPath412)">
            <g
               id="g424">
              <g
                 id="g426" />
              <g
                 id="g428">
                <g
                   id="g430"
                   clip-path="url(#clipPath416)">
                  <g
                     id="g432"
                     transform="translate(400.751,364.5762)">
                    <path
                       inkscape:connector-curvature="0"
                       id="path434"
                       style="fill:#d2de31;fill-opacity:1;fill-rule:nonzero;stroke:none"
                       d="m 0,0 c -3.209,-3.209 -7.474,-4.975 -12.01,-4.975 -4.536,0 -8.802,1.766 -12.008,4.975 -3.209,3.209 -4.975,7.472 -4.975,12.009 0,4.534 1.766,8.8 4.974,12.007 3.207,3.209 7.473,4.977 12.009,4.977 4.536,0 8.801,-1.768 12.01,-4.977 C 3.207,20.809 4.973,16.543 4.973,12.009 4.973,7.472 3.207,3.209 0,0" />
                  </g>
                </g>
              </g>
            </g>
          </g>
        </g>
        <g
           id="g448"
           transform="matrix(2.1651382,0,0,2.0839225,-2312.4442,-307.30533)">
          <g
             id="g450"
             clip-path="url(#clipPath440)">
            <g
               id="g452">
              <g
                 id="g454" />
              <g
                 id="g456">
                <g
                   id="g458"
                   clip-path="url(#clipPath444)">
                  <g
                     id="g460"
                     transform="translate(342.1416,321.7266)">
                    <path
                       inkscape:connector-curvature="0"
                       id="path462"
                       style="fill:#ffcf00;fill-opacity:1;fill-rule:nonzero;stroke:none"
                       d="m 0,0 c 0.004,0.003 0.004,0.008 0.004,0.013 0.003,0.004 0.003,0.009 0.007,0.01 1.619,4.84 3.982,9.481 7.07,13.757 l 0.004,0.003 c 1.597,2.205 3.388,4.317 5.376,6.304 0.693,0.693 1.403,1.364 2.124,2.01 7.461,6.671 16.394,10.798 25.676,12.383 l -3.459,1.85 c -2.989,1.599 -6.206,2.705 -9.556,3.284 -1.531,0.266 -3.084,0.422 -4.632,0.463 L 22.61,40.075 c -1.779,0.051 -3.567,-0.049 -5.34,-0.3 C 13.908,39.299 10.664,38.307 7.629,36.813 4.494,35.264 1.636,33.22 -0.854,30.73 -3.347,28.236 -5.393,25.378 -6.94,22.245 c -1.493,-3.037 -2.487,-6.28 -2.96,-9.638 -0.353,-2.517 -0.411,-5.05 -0.163,-7.564 0.077,-0.808 0.184,-1.615 0.322,-2.416 0.584,-3.348 1.691,-6.565 3.284,-9.554 l 3.838,-7.181 c 0.17,3.768 0.751,7.526 1.739,11.192 L 0,0 Z" />
                  </g>
                </g>
              </g>
            </g>
          </g>
        </g>
      </g>
    </g>
    <text
       xml:space="preserve"
       style="font-style:normal;font-weight:normal;font-size:11.92494011px;line-height:125%;font-family:sans-serif;letter-spacing:0px;word-spacing:0px;fill:#000000;fill-opacity:1;stroke:none;stroke-width:1px;stroke-linecap:butt;stroke-linejoin:miter;stroke-opacity:1"
       x="47.407066"
       y="1024.9467"
       id="text5301"
       sodipodi:linespacing="125%"
       transform="scale(1.0036943,0.99631929)"><tspan
         sodipodi:role="line"
         id="tspan5303"
         x="47.407066"
         y="1024.9467"
         style="fill:#009cf0">Coalición</tspan></text>
    <text
       xml:space="preserve"
       style="font-style:normal;font-weight:normal;font-size:19.07792091px;line-height:125%;font-family:sans-serif;letter-spacing:0px;word-spacing:0px;fill:#000000;fill-opacity:1;stroke:none;stroke-width:1px;stroke-linecap:butt;stroke-linejoin:miter;stroke-opacity:1"
       x="45.310886"
       y="1053.8052"
       id="text5301-7"
       sodipodi:linespacing="125%"
       transform="scale(1.0389011,0.96255553)"><tspan
         sodipodi:role="line"
         id="tspan5303-5"
         x="45.310886"
         y="1053.8052" /><tspan
         sodipodi:role="line"
         x="45.310886"
         y="1077.6526"
         id="tspan4712"
         style="font-style:normal;font-variant:normal;font-weight:normal;font-stretch:normal;font-family:sans-serif;-inkscape-font-specification:sans-serif;fill:#e90000;fill-opacity:1">Impunidad</tspan></text>
    <text
       xml:space="preserve"
       style="font-style:normal;font-weight:normal;font-size:8.39157581px;line-height:125%;font-family:sans-serif;letter-spacing:0px;word-spacing:0px;fill:#ffffff;fill-opacity:1;stroke:none;stroke-width:1px;stroke-linecap:butt;stroke-linejoin:miter;stroke-opacity:1;"
       x="97.487167"
       y="1024.3353"
       id="text5301-0"
       sodipodi:linespacing="125%"
       transform="scale(1.0036943,0.99631929)"><tspan
         sodipodi:role="line"
         id="tspan5303-7"
         x="97.487167"
         y="1024.3353"
         style="fill:#ffffff;">Contra la</tspan></text>
  </g>
</svg>
